…
Here we plot average arrival and departure delays by time of day for
each airline flying into and out of ABIA. We noticed some times on some
airlines featured outlying average delays, so we isolated low
observation counts (&lt;4 data points) for each airline at each hour.
The outlying delay times all come from such low observation count
flights. This implies possible poor accuracy in calculating delays from
those airlines at those times.

 

## Exercise 2: Wrangling the Olympics

### A) What is the 95th percentile of heights for female competitors across all Athletics events (i.e., track and field)?

    ## # A tibble: 132 × 2
    ##    event                                       quant95
    ##    <chr>                                         <dbl>
    ##  1 Athletics Women's 1,500 metres                 172 
    ##  2 Athletics Women's 10 kilometres Walk           170 
    ##  3 Athletics Women's 10,000 metres                168.
    ##  4 Athletics Women's 100 metres                   180.
    ##  5 Athletics Women's 100 metres Hurdles           176 
    ##  6 Athletics Women's 20 kilometres Walk           173 
    ##  7 Athletics Women's 200 metres                   180 
    ##  8 Athletics Women's 3,000 metres                 170 
    ##  9 Athletics Women's 3,000 metres Steeplechase    177.
    ## 10 Athletics Women's 4 x 100 metres Relay         176 
    ## # … with 122 more rows

    ##   quant95
    ## 1     186

The table provides the 95th quantile of height for female competitors
within each Athletics event. The 95th quantile of height for female
competitors across all Athletics events is 186 cm.

 

### B) Which single women’s event had the greatest variability in competitor’s heights across the entire history of the Olympics, as measured by the standard deviation?

    ## # A tibble: 132 × 2
    ##    event                                          sd
    ##    <chr>                                       <dbl>
    ##  1 Athletics Women's 1,500 metres               5.03
    ##  2 Athletics Women's 10 kilometres Walk         4.31
    ##  3 Athletics Women's 10,000 metres              5.41
    ##  4 Athletics Women's 100 metres                 6.29
    ##  5 Athletics Women's 100 metres Hurdles         4.68
    ##  6 Athletics Women's 20 kilometres Walk         5.28
    ##  7 Athletics Women's 200 metres                 5.14
    ##  8 Athletics Women's 3,000 metres               5.48
    ##  9 Athletics Women's 3,000 metres Steeplechase  6.06
    ## 10 Athletics Women's 4 x 100 metres Relay       5.57
    ## # … with 122 more rows
…
